DE_Disney,DE_Catan,DE_Maske,EN_Disney,EN_Catan,EN_Easybreath
Attraktionen,10 Jahre,begeistert,adults,4 player,air
begeistert,20 Jahren,beim Schnorchel,amazing,6 player,amazing
Besuch,4 Spielern,Brille,attractions,bad,best
Disneyland,6 Spieler,dicht,awesome,best,breath
Disneyland Paris,Barbaren,Easybreath,bad,better game,breath mask
enttäuscht,Besitzer,Frau,beautiful,board game,breath snorkel
Erlebnis,Buch,funktioniert,best,boring,breathing
Essen,Catan,Gesicht,big,cards,brilliant
Euro,Einstieg,Größe,birthday,catan,clear
Fahrgeschäfte,Entdecker,gute,brilliant,cities,comfortable
Feuerwerk,Erweiterung,Kinder,cast member,classic,conventional
Figuren,Glücksfaktor,Maske,characters,dice,daughter
freundlich,Händler,Meer,children,dice roll,day
Geld,Historische Szenarien,Mund,christmas,different,decathlon
geschlossen,Jahres,Nase,clean,easy,dive
gut,Klassiker,perfekt,closed,edition,easier
Hotel,Klaus Teuber,Preis,come,enjoy,easy
immer wieder,Ritter,Produkt,come back,euro game,easy breath
Jahr,Seefahrer,Qualität,daughter,expansions,easybreath
Kind,Seefahrer Erweiterung,schnelle lieferung,day,family,easybreath mask
klasse,Siedler,Schnorcheln,disappointed,favorite,excellent
Minuten,Spiel,Sicht,disney,friends,experience
Ort,Spiele Preis,Sichtfeld,disneyland,fun,face
Parade,Spieler,Sohn,disneyland paris,fun game,face mask
Park,Spielern,Spaß,dreams,game,face snorkel
Personal,Städte,tauchen,enjoyed,gamers,fantastic
Preise,Szenarien,Teil,expensive,games,first time
Restaurants,Varianten,Tochter,experience,gaming,fish
sauber,wirklich lustig,toll,family,gateway game,fit
schön,,Urlaub,fantastic,good,fogging
schönste,,Wasser,feel,good game,full face
Spaß,,zufrieden,food,great,fun
Studios,,,french,great game,good
super,,,friendly,group,great
Tag,,,fun,hobby,great product
teuer,,,good,interaction,head
toll,,,great,introduce,highly recommend
Traum,,,half,knights,holiday
traumhaft,,,happy,learn,husband
Wartezeiten,,,helpful,love,kids
Welt,,,holiday,luck,love
wunderschön,,,home,mechanics,mask
Zeit,,,hotel,modern,mouth
,,,hours,monopoly,normal
,,,kids,new game,nose
,,,land paris,new player,old
,,,let,nice,perfect
,,,little,non-gamers,pool
,,,long,old,problems
,,,lot,players,product
,,,love,playing,purchased
,,,loved every,plays,sea
,,,magical,random,size
,,,make,randomness,small
,,,meet,rating,snorkel
,,,mickey,resource,snorkel mask
,,,minute,robber,snorkeling
,,,money,rules,snorkelling
,,,new,seafarers,snorkelling mask
,,,next year,settlers,son
,,,nice,simple,surface
,,,night,strategy,swim
,,,old,table,swimming
,,,parade,time,time
,,,parks,trade,traditional
,,,pass,trading,tribord
,,,people,version,tube
,,,perfect,way game,underwater
,,,place,win,use
,,,princess,world,valve
,,,queues,years,view
,,,recommend,,vision
,,,restaurants,,water
,,,rides,,wife
,,,rude,,worth
,,,second,,years
,,,service,,
,,,shows,,
,,,smoking,,
,,,son,,
,,,spent,,
,,,staff,,
,,,stay,,
,,,thank,,
,,,thing,,
,,,time,,
,,,trip,,
,,,true,,
,,,visit,,
,,,wait,,
,,,waiting,,
,,,way,,
,,,week,,
,,,whole,,
,,,wonderful,,
,,,world,,
,,,worth,,
,,,year,,
,,,year old,,
