id,user,rating,comment,game_id,game,lang
3464291,ilikesanta,10.0,Uno is a fast fun and perfect game.,2223,UNO,en
3464341,Hatch1968,10.0,"Perfect family game that I have been playing for nearly 40 years. People are being way too critical of this game. It is what it is, which is a lot of fun to play with people you love. My best memory is playing it in Mexico City with locals who laughed hard at the name of the game as we all shot bootleg tequila every time a round ended.",2223,UNO,en
3464441,ddefranza,10.0,This has been my favorite game since I was about six years old.,2223,UNO,en
3464442,ADuBois877,10.0,"When we play Uno, we play to COMPETE. It's a battle game at our house.",2223,UNO,en
3464474,Revoltor,9.0,Great game that made many a good time in highschool. I found out it was really some old card game Crazy Eights and got really depressed.,2223,UNO,en
3464475,PBatt,9.0,Had it for years. Fun for everyone.,2223,UNO,en
3464477,WanderingMouse,9.0,"I love UNO! Crazy Eights on steriods, and always a fun time. Lots of player interaction, especially when using house rules. A really fine way to spend a couple of hours in my opinion.",2223,UNO,en
3464478,Green_Centipede,9.0,This game is a classic and I will enjoy playing it until my last breath.,2223,UNO,en
3464479,candy555479,9.0,A game just about anyone can play. A great family get together game.,2223,UNO,en
3464655,Juperdat,9.0,We play this with the little ones. Easy to get several games done in a sitting with our little kid house rules.,2223,UNO,en
3464686,vvildcard,9.0,"Average game with default rules... AMAZING game with a few house rules... (1) ""Slam In"" = Anyone can play an exact match of the last card played (out of turn). Play continues from the person who 'slammed in'. (2) Defensive Cards = Skip, Reverse and draw two can be played ""defensively"" (must still be a valid color/type match): Skip passes a Draw action to the next player, Reverse puts the draw action back on the previous player (and reverses direction of play) and Draw Two adds to the total number to be drawn (once all defensive cards are played). (3) At the end of every game, the winner gets to make a new rule for all future games... examples include: Playing a ""0"" forces everyone to pass their hand in the direction of play... 1's are now ""Draw 1"" (optional: the target does not loser their turn)... you can not slam in on a Wild... etc.",2223,UNO,en
3464739,Feirhee,9.0,Another classic that is what it is.,2223,UNO,en
3464750,ikagan,8.5,Another great group/family game.,2223,UNO,en
3464772,Capn_Future,8.0,classic party game where almost anynumber of people can play.,2223,UNO,en
3464774,Morten Løvåsen,8.0,A classic. Mine is a Ferrari Edition with a few extra Special Cards.,2223,UNO,en
3464788,kudzi,8.0,Lots of fun variations.,2223,UNO,en
3464795,buzz812,8.0,Good for large groups. ,2223,UNO,en
3465623,mirrorworld,7.5,"A classic, fun, smooth, easy to play and yet, I never been bored of this game.",2223,UNO,en
3465624,dimix,7.5,"I think we all have to admit ,sometime we played Uno till morning.. simple, addictive, So 7.5 is fair enough.",2223,UNO,en
3465689,mikesanerd,7.4,A classic. To me this is the ultimate family card game.,2223,UNO,en
3465691,fr014371,7.3,Easy play and has lots of fun. You can add some varient rules and make it to a new game. I would like to play this when I need relax and do something except watching TV.,2223,UNO,en
3465697,Neale2006,7.2,"A reliable card game with a ""take that"" element. Great fun for a light fast filler.",2223,UNO,en
3465714,chbates,7.0,A classic! Very different with two people.,2223,UNO,en
3466701,2018,7.0,Fantastic game once the rules are tweaked.,2223,UNO,en
3466709,spazz451,7.0,"For: Gateway, Family, Adults, Kids, Party Type: Card play A classic that anyone can play. We now have a couple versions that the girls got as gifts.",2223,UNO,en
3466938,andlord,7.0,Solid game. It's a classic for a reason,2223,UNO,en
3466941,darbjustic,7.0,"Purely ranked on nostalgia. It really should be a 5 but I have too many good memories on this one. Our family would go to Lake Shasta and play this at night after a day on the lake. I love the Deluxe version from the 1980's with a black tray. House variants we love: 1) Speed Uno. If you have the EXACT card (number and color--no word cards) you can cut in line. The play advances to whoever cut in line and skips whoever was about to play and everyone in between. If you have two of the same exact cards in your hand you have to play them separately and no double-handing it. 2) Stacking Uno. If a Draw Two or Wild Draw Four are played on you, you can do a few things....Stack on top (no matter what color, but the type of card must match). The next player would have to deal with both cards. In the case of two Draw Two's, the next player would then have to draw four. If the next player has another Draw Two, they can stack on top as well, passing the consequences down the line. If a player puts down a Draw Four, you can not stack a Draw Two on it--only another Draw Four. One other piece to Stacking Uno, you can use a Skip or Reverse to pass the consequences accordingly. The rules of either matching color or type still apply. An example: Player 1 drops a blue Draw Two. Player 2 drops a yellow Draw Two on top. Player 3 would have to draw four but has a yellow Skip. Player 3 plays the yellow Skip having the consequence of drawing four cards onto Player 4. (If player 4 had a Skip of any color or a yellow Reverse he could play it, passing the consequence appropriately. He could not add a Draw Two/Draw Four at this point).",2223,UNO,en
3466942,lancasterc100,7.0,Uno is a very solid game. Great go-to.,2223,UNO,en
3466958,Oryo,7.0,"Family variant: 0 - change hands with 1 player of your choice 6 - slap the table, last person to do so takes an extra card 7 - everyone passes their hand to the left Stack - get to play a card out of turn as long as the card played and your card are the exact same card (ex. Blue 3 is played I cannot play a green or any other color, it must be a blue 3) (play example: player 1 plays a blue 3 I yell STACK now it's my turn and I can play my card. All other players before me are now skipped. The play resumes with the next player to my left or right depending on the direction the game play is going.) Help - if any other player does not have a card needed and rather than picking up from the deck, they could ask for help. All other players can now offer any card they want whether it helps the other player or not. All cards must be offered facedown. All other rules to the original uno still apply. *you may also play draw twos and draw fours on each other. You may also upgrade a from a draw two to a draw four but you cannot downgrade from a draw four to a draw two. This leads to massive amounts of draws which are hilarious and fun!",2223,UNO,en
3466960,skacore66,7.0,Stylized version of crazy 8's. A classic that I usually play with kids at the elementary school I work at. Never use the standard rules (most people have their own version of the rules they use). Always fun for a quick game or 2 but can get boring after 15 hands in a row!,2223,UNO,en
3466980,Zapruder,7.0,"We all know this game. It's fun, it's easy, and even though it's technically a childrens game, it can build up to quite some tension. Love it when it's played really fast.",2223,UNO,en
3466990,pettzar,7.0,"With few rules tweaks we have in our playing group, UNO is one of our favorite party games. Fast and furious the way we play it, becomes ideal when the atmosphere is relaxed.",2223,UNO,en
3466996,TalonOne,7.0,"Very much a play-what-you-have game but a very good filler or ""hey its past 2 AM but we want to play another game""-game. Also, scratch that 4+ rule, just play them whenever.",2223,UNO,en
3467735,Idle Muse,6.5,A game with depth beyond that when you played it as a kid; worth re-examining.,2223,UNO,en
3467740,lliyi,6.5,"The ""cut"" house rule changed this otherwise bland game into something completely different.",2223,UNO,en
3467750,moik,6.5,A pretty middle-of-the road game in all respects.,2223,UNO,en
3468035,Beelzebub,6.0,Fun family game. Good for young kids.,2223,UNO,en
3468039,D.Lopez,6.0,"Good, quick filler game. I do not understand the bad reviews; it's meant to fast and simple. It costs $2 average. Umm..I do not see the problem.",2223,UNO,en
3468049,a2greg,6.0,Old parlor game from the 70's? Fun for the family.,2223,UNO,en
3468055,zublord,6.0,My kids love playing this. It is also popular with adults in Japan where I live.,2223,UNO,en
3468056,Hopalong,6.0,Family game,2223,UNO,en
3468064,Jokeerus,6.0,"Bump the rating up by one if your playing the ""Speed"" version(s).",2223,UNO,en
3468065,JohnC,6.0,"Remake of a traditional card game with a few new twists. Playable, but nothing special.",2223,UNO,en
3468070,PSac,6.0,"Like most card games, luck is a huge factor, not too much thinking. It&#039;s pretty good for a party game especially with house rules (makes for a lot of actions). ",2223,UNO,en
3468071,Anthares,6.0,"Game from my childhood. Very good, very simple. Play it with your child.",2223,UNO,en
3468095,seaapple,6.0,Fun game. Who doesn&#039;t own it?,2223,UNO,en
3468581,Woelf,6.0,"A childhood favorite. We played the hell out of this in high school study hall too, and have even brought it out and enjoyed it a few times since then. A bit on the dull side when played by the standard rules, but gets much more interesting with a few house rules: 1) draw two/4 cards can be stacked. If the first player puts down a draw two, the second player can play another draw two on top (instead of drawing). The next player in line then has to draw all four cards - or play yet another Draw card on top, which bumps up even more for the next player. Repeat until someone can not (or chooses not to!) play a Draw card on top, and then they get to draw the whole set. A draw four can be played freely on a draw two or another draw four, but a draw two can only be played on a draw four if it matches the color that was called. 2) Playing a valid card from your hand is not mandatory. This often leads to players holding onto Draw cards until the very end, rather than wasting them when they have nothing else to play. Often someone would rather draw a few extra cards than drop a draw four if they still have several other cards left in their hand. 3) If you can not play a card on your turn (or choose not to), you have to draw cards one at a time until you can - but you do not have to stop if you find a playable card. This results in the interesting tactic where players will often intentionally pick up a few extra cards, on the off chance they might find an all-powerful draw four. 4) The ""YOU did not CALL UNO!"" thing we usually let slide up until the next person plays a card. None of this, ""you did not call Uno within 2 milliseconds of playing your card, so draw!"" crap that some groups encounter. If you still haven't called it by the time the next player plays a card, then you're boned. Combined these can make the game take a lot longer, but it makes for a much more enjoyable game.",2223,UNO,en
3468582,ChonChuuk,6.0,"x Grew up in a non-Gamer household. However, any and all card games were good. This and Rook were played regularly. Because of all the family fun we had, and still have, I give it a solid 6.",2223,UNO,en
3468583,sirkerry,6.0,My wife's favorite card game.,2223,UNO,en
3468585,tiggers,6.0,Just a bit of fun - if in the right mood,2223,UNO,en
3468795,SlimJim,6.0,"The only playable game, that the whole family can play. ",2223,UNO,en
3471983,Eric Ridley,5.5,"I also own a version of this on Xbox live arcade. *update, not anymore, my xbox packed up*. Good game and plenty of fun for all the family.",2223,UNO,en
3472223,Kirikaito,5.5,For sale or trade. Original box lost. 9/10 condition Selling for BND 5,2223,UNO,en
3472233,ThinkingThatsAll,5.5,Good enough filler. Easy to teach but involves some (minimal) skill to play,2223,UNO,en
3472257,Altaica27,5.5,"Playing with following rules can make it quite fun. #1. 7 = When playing this you can choose to switch hands with another player. #2. 0 = Everyone gives his hand to the person next to him, according of play order. #3. +4 can only be played when you cannot follow active colour or upon another +4, rule #5 applies #4. +2 can only be played upon other +2, rule #5 applies #5. Everyone can play the ""exact"" same card on top of the active card on the discard pile anytime he desires. Skipping everyone before him and continuing from that player in the correct order. By this the game gets quite interactive and you really have to keep track of everything.",2223,UNO,en
3472259,Delsana,5.5,"I would play it again, preferably in a different mode. It wasn't a bad game and I had a bit of fun with it when I was a kid.",2223,UNO,en
3472262,quetzal513,5.5,"P: 2-10, T: 30 min Classic ""Crazy 8's"" style hand elimination with take-that mechanics.",2223,UNO,en
3472314,f1shm00,5.5,Very light. Barely any strategy and can go on for too long.,2223,UNO,en
3472332,Man0Steel117,5.5,"The classic game of ridiculous amounts of drawing. Have played this with innumerable house years over the years but it always has that same unique uno feel. Nothing is quite as great as seeing the dread on another player's face as they continue to draw and draw for the card they need. But even if it happens to you, laughing alongside everybody else is just as fun. A great way to pass the time.",2223,UNO,en
3472335,MajorPsycho,5.5,"Simple filler game everyone knows but everyone has it's own ""home made"" rules that one thinks its a real rule. Almost pure luck, it can still bring fun if no one take it too seriously.",2223,UNO,en
3472351,snyder_rb,5.4,"""Beach"" Theme edition, came with beach ball",2223,UNO,en
3475131,ververken,5.0,BGG Rank on 19/01/2017: 13157 Keep it because it is played a lot. Do not know why ... Tere are much better games with this mechanism...,2223,UNO,en
3476470,mperkins,4.5,Not nearly enough strategy for my tastes.,2223,UNO,en
3476471,boltongeordie,4.5,"Just a retheming of a standard card game. Not great but it is good for introducing kids to card games and it seems to have introduced quite a few people to games outside the traditional half dozen. On the other hand, there isn't a decision in sight.",2223,UNO,en
3477064,MrHen,4.0,Family owned game,2223,UNO,en
3477065,cogstockeros,4.0,It works for a filler with a group that is unwilling to try new things. I will come back to this if I need to. Worked great to kill time prior to the wedding! Just found out there was originally a scoring mechanism for the game. It's completely senseless since there is no control in the game anyway. ,2223,UNO,en
3477070,cbrua,4.0,"Boring, but at least it is a game that most people will play.",2223,UNO,en
3478028,toober,4.0,We made up our own house rules for most numbers. It's almost a contact sport at this point.,2223,UNO,en
3478041,Eggers,4.0,can not remember having much fun with this. ,2223,UNO,en
3478056,Dingbat Meeplepusher,4.0,It's Uno.,2223,UNO,en
3479193,Windmillfighter,3.25,You need common cheap games when camping. Play this by the official score rules in multiple rounds and it is so much better (add a kinda press your luck for the wilds as if another player wins they get more points if you have one).,2223,UNO,en
3479197,Posco,3.16,"Good family fun, not for ONE.",2223,UNO,en
3479205,ekh_86,3.0,"For some reason, extremely popular in Jury waiting rooms.",2223,UNO,en
3479208,marknau,3.0,Watch the random stuff happen. Weeeeee.,2223,UNO,en
3479344,Ladislaus,3.0,"Personally I have nothing against ""light"" games. Usually, they are easy, fun, and short. Uno is easy, and it can be fun. However--unless you have the luck of the Greek goddess, Tyche--a short game it is NOT. The game industry has come a long way, put Uno back into the closet and play something else. The repetitive nature of this game is quite mind-numbing. {3} :star::nostar::nostar::nostar::nostar:",2223,UNO,en
3479926,Heikai,3.0,At least it's fast.,2223,UNO,en
3479929,NowOrNever88,3.0,"Hated the speed element of the game, and I did not enjoy this game all that much. Many modern games do this better and actually engage your brain more, which I love. Would only play this for nostalgia or for a kid maybe, but thats about it. Plays: 4",2223,UNO,en
3479934,lebryant,3.0,Many hours spend playing this with parents in the childhood. Too random and samey at times but it should not be taken seriously. It's been around for ages and still would beat some most recent filler games.,2223,UNO,en
3479937,JoshKlaz,3.0,I really do not like UNO. You know? EDIT: Have sold it.,2223,UNO,en
3479940,jkandell,3.0,"My 6 yo likes it, but it fails the second part of the ""test"" I use for childrens games: must be at least passably enjoyable for adults too. Will try to talk them into rat-tat-tat which can be played with same deck. ",2223,UNO,en
3479943,tiagoVIP,3.0,"It is UNO. Sometimes will work for a fine play. Others will last a big chuck of eternity to end - and will just do this when the players quit. Luckly, this was passed behind a long time for several thousands of better card games.",2223,UNO,en
3479947,VaultBoy,3.0,Never been a fan of this as there's not much of a game here. A robot could play this game.,2223,UNO,en
3480359,Drac,2.5,"meh, sometimes fun, with family who do not want to try other games. ",2223,UNO,en
3480360,ben_ethus,2.5,"I won't play this with adults. If there's kids around, I might, although I'd try to get them to play something better like, ""Hey, Where's My Fish!"" ",2223,UNO,en
3480362,kevinwho,2.5,Extremely annoying game. Gains half a point in the ratings because I may be forced to play it again.,2223,UNO,en
3480364,fehrmeister,2.5,Pretty much 100% luck; strictly a good kids game,2223,UNO,en
3480372,jgoyes,2.5,"2013-11-21 Initial Rating: 8.0 (Pre 2010) I loved Crazy Eights when I was eight. It was a great game for the moment, but apart from nostalgia, Uno doesn’t offer anything for me nowadays. It was a great game because it was the only game I knew for a while. I don’t see Uno in my future again. It has a very high degree of luck with very few (almost none) decisions from your part. On February 2012 I rated it a 4.0. I was way too generous. Today I´ll rate it according to my feelings and the BGG rating system. Current Rating: 2.5",2223,UNO,en
3480373,zazery,2.5,I enjoyed playing this game with friends that forgot to say Uno when I was little. Played this game again recently and never want to play it again.,2223,UNO,en
3480374,the_lifetamer,2.5,"(+~20 Plays before I started counting) From the darkest corner of my memories: I have very fond memories of this, though it is luck based. There is a similar standard card game but uno was somewhat better than it as I recall. Then again, why buy a boardgame when you can have a similar experience with a simple deck of cards? As a game: 4 As a need to exist: 1",2223,UNO,en
3480377,chrstr,2.5,"Fun memories from childhood, but a decidedly ordinary game as an adult. With enough ""house rules"" this could be fun, but usually will only play it if we need a quick game for 8+ people... (Update: now that I have ""The Resistance"", do not really see myself playing this very much)",2223,UNO,en
3480379,MrMonkey,2.5,"Luck based card game, good for people who want something to do when talking about something else. Some `strategy' can be employed, but frequently it's not worth the effort. Good for kids sometimes. Depending on the home-rules people play with the game can go on for a very long time.",2223,UNO,en
3480386,ikesteroma,2.5,"I play Uno occasionally only because my kids enjoy the game, and I suppose it is part of my responsibility as a dad to occasionally put up with such nonsense. In short, however, I really do hate Uno.",2223,UNO,en
3480388,wallah,2.5,Was fun when I was 10 :),2223,UNO,en
3480397,bcnevan,2.5,"Played this over the holidays for the first time in years. While it's probably better than Old Maid or Go Fish, it's still pretty bad. It's just a time waster, nothing more.",2223,UNO,en
3480407,BruceGee,2.0,"This isn't a game, it's an activity.",2223,UNO,en
3480907,otrex,1.0,I hate this game. It has no redeeming value at all except for making life just a *little* more boring...,2223,UNO,en
3480908,Jatoha,1.0,"My hatred for this game may be excessive, but not unjustified.",2223,UNO,en
3480909,henddher,1.0,NOOOO PLEASE ... UNO NO!!! Just non-sense,2223,UNO,en
3480911,msaya,1.0,"Uno for [i]Uno[/I]. Although I can not rule out the possibility, I see absolutely no point in ever playing this game again. Glad to say that unlike most of my other 1s, I never made the mistake of buying [i]Uno[/I].",2223,UNO,en
3480912,Lajos,1.0,"Torture, except when played with very young children.",2223,UNO,en
