Werbefeature deutsch,Werbefeature englisch
Abwechslung,board game
Bauen,brick
Brettspiel Assistent,cards
clever,catan
einfacher Einstieg,cities
einmaliges Spielerlebnis,civilization
Einstieg,clever
Ergänzungen,competition
Erweiterungen,development cards
Familie,dice
Freunde,different board every game
groß und klein,grain
große Vielfalt,harvesting
Großfamilie,luck
Handeln,lumber
Händler,monopoly card
klarer Aufbau,ore
Klassiker,popular
Klaus Teuber,random mix
Kosmos-App,resources
Kosmos-Erklär-App,robber
leichte Regeln,settlers
leichter,strategy
logische Struktur,tactical skill
Play it smart,terrain hex
Rechner,trades
Regelkonzept,trading
Rohstoffe,victory points
schneller Start,war game
Siedeln,wool
Siedlungen,
spannende Spielstunde,
Spaß,
Spiel des Jahres,
Spiel des Jahrhunderts,
Spielerlebnis,
Spielmechanismus,
Städte,
Straßen,
Taktiker,
unkompliziert,
Vielfalt,
Zufall,
